e	n	e	l	e
i	h	u	s	o
o	o	p	n	a
b	s	r	c	e
s	n	o	c	g
l	s	r	e	a
n	e	l	u	f
t	n	t	t	t
h	o	p	s	m
i	i	e	a	n
i	s	n	t	p
e	n	i	a	y
a	n	n	i	a
s	p	e	t	e
v	s	a	r	o
g	i	m	s	e
o	n	i	f	d
t	i	l	h	f
t	r	e	f	s
c	g	e	i	i
o	a	a	s	t
s	s	c	a	i
o	h	r	r	e
s	t	e	s	n
x	x	x	x	x
